{
  "btw": [
    {
      "btw001": "17.5",
      "btw001": "10",
      "btw003": "27",
      "btw004": "19",
      "btw005": "42.4",
      "btw006": "25.4",
      "btw007": "31.4",
      "btw008": "30.38",
      "btw009": "28.6",
      "btw010": "26",
      "btw011": "22",
      "btw012": "0"
    }
  ],
  "proz-baden": [
    {
      "btw001": "20",
      "btw001": "10",
      "btw003": "18",
      "btw004": "24",
      "btw005": "30.5",
      "btw006": "31.7",
      "btw007": "15.7",
      "btw008": "11.39",
      "btw009": "21.4",
      "btw010": "9",
      "btw011": "11",
      "btw012": "0"
    }
  ],
  "proz-bayern": [
    {
      "btw001": "20",
      "btw001": "10",
      "btw003": "18",
      "btw004": "24",
      "btw005": "30.5",
      "btw006": "31.7",
      "btw007": "15.7",
      "btw008": "11.39",
      "btw009": "21.4",
      "btw010": "9",
      "btw011": "11",
      "btw012": "0"
    }
  ],
  "proz-berlin": [
    {
      "btw001": "20",
      "btw001": "10",
      "btw003": "18",
      "btw004": "24",
      "btw005": "30.5",
      "btw006": "31.7",
      "btw007": "15.7",
      "btw008": "11.39",
      "btw009": "21.4",
      "btw010": "9",
      "btw011": "11",
      "btw012": "0"
    }
  ],
  "proz-hamburg": [
    {
      "btw001": "20",
      "btw001": "10",
      "btw003": "18",
      "btw004": "24",
      "btw005": "30.5",
      "btw006": "31.7",
      "btw007": "15.7",
      "btw008": "11.39",
      "btw009": "21.4",
      "btw010": "9",
      "btw011": "11",
      "btw012": "0"
    }
  ],
  "proz-nrw": [
    {
      "btw001": "20",
      "btw001": "10",
      "btw003": "18",
      "btw004": "24",
      "btw005": "30.5",
      "btw006": "31.7",
      "btw007": "15.7",
      "btw008": "11.39",
      "btw009": "21.4",
      "btw010": "9",
      "btw011": "11",
      "btw012": "0"
    }
  ],
  "proz-sachsen": [
    {
      "btw001": "20",
      "btw001": "10",
      "btw003": "18",
      "btw004": "24",
      "btw005": "30.5",
      "btw006": "31.7",
      "btw007": "15.7",
      "btw008": "11.39",
      "btw009": "21.4",
      "btw010": "9",
      "btw011": "11",
      "btw012": "0"
    }
  ],
  "sitze-baden": [
    {
      "btw001": "20",
      "btw001": "10",
      "btw003": "18",
      "btw004": "24",
      "btw005": "30.5",
      "btw006": "31.7",
      "btw007": "15.7",
      "btw008": "11.39",
      "btw009": "21.4",
      "btw010": "9",
      "btw011": "11",
      "btw012": "0"
    }
  ],
  "sitze-bayern": [
    {
      "btw001": "20",
      "btw001": "10",
      "btw003": "18",
      "btw004": "24",
      "btw005": "30.5",
      "btw006": "31.7",
      "btw007": "15.7",
      "btw008": "11.39",
      "btw009": "21.4",
      "btw010": "9",
      "btw011": "11",
      "btw012": "0"
    }
  ],
  "sitze-berlin": [
    {
      "btw001": "20",
      "btw001": "10",
      "btw003": "18",
      "btw004": "24",
      "btw005": "30.5",
      "btw006": "31.7",
      "btw007": "15.7",
      "btw008": "11.39",
      "btw009": "21.4",
      "btw010": "9",
      "btw011": "11",
      "btw012": "0"
    }
  ],
  "sitze-hamburg": [
    {
      "btw001": "20",
      "btw001": "10",
      "btw003": "18",
      "btw004": "24",
      "btw005": "30.5",
      "btw006": "31.7",
      "btw007": "15.7",
      "btw008": "11.39",
      "btw009": "21.4",
      "btw010": "9",
      "btw011": "11",
      "btw012": "0"
    }
  ],
  "sitze-nrw": [
    {
      "btw001": "20",
      "btw001": "10",
      "btw003": "18",
      "btw004": "24",
      "btw005": "30.5",
      "btw006": "31.7",
      "btw007": "15.7",
      "btw008": "11.39",
      "btw009": "21.4",
      "btw010": "9",
      "btw011": "11",
      "btw012": "0"
    }
  ],
  "sitze-sachsen": [
    {
      "btw001": "20",
      "btw001": "10",
      "btw003": "18",
      "btw004": "24",
      "btw005": "30.5",
      "btw006": "31.7",
      "btw007": "15.7",
      "btw008": "11.39",
      "btw009": "21.4",
      "btw010": "9",
      "btw011": "11",
      "btw012": "0"
    }
  ],
}
